<svg width="32" height="32" viewBox="0 0 32 32" fill="none" xmlns="http://www.w3.org/2000/svg">
<circle cx="16" cy="16" r="16" fill="#B1C903"/>
<path d="M18.38 23L13.66 16.8V23H10.24V8.96H13.66V15.12L18.34 8.96H22.36L16.92 15.84L22.56 23H18.38Z" fill="#FBFBFB"/>
</svg>
