<svg width="20" height="18" viewBox="0 0 20 18" fill="none" xmlns="http://www.w3.org/2000/svg">
<path fill-rule="evenodd" clip-rule="evenodd" d="M16.3026 1.797H3.69734C2.20555 1.797 0.996216 3.00633 0.996216 4.49812V13.5019C0.996216 14.9937 2.20555 16.203 3.69734 16.203H16.3026C17.7944 16.203 19.0037 14.9937 19.0037 13.5019V4.49812C19.0037 3.00633 17.7944 1.797 16.3026 1.797ZM15.9334 3.59775L10.6392 8.89195C10.4702 9.0624 10.24 9.15828 9.99997 9.15828C9.75989 9.15828 9.52976 9.0624 9.3607 8.89195L4.06649 3.59775H15.9334ZM17.203 13.5019C17.203 13.9991 16.7999 14.4022 16.3026 14.4022H3.69734C3.20008 14.4022 2.79697 13.9991 2.79697 13.5019V4.86726L8.09117 10.1615C9.14575 11.2147 10.8542 11.2147 11.9088 10.1615L17.203 4.86726V13.5019Z" fill="#B1C903"/>
<mask id="mask0" mask-type="alpha" maskUnits="userSpaceOnUse" x="0" y="1" width="20" height="16">
<path fill-rule="evenodd" clip-rule="evenodd" d="M16.3026 1.797H3.69734C2.20555 1.797 0.996216 3.00633 0.996216 4.49812V13.5019C0.996216 14.9937 2.20555 16.203 3.69734 16.203H16.3026C17.7944 16.203 19.0037 14.9937 19.0037 13.5019V4.49812C19.0037 3.00633 17.7944 1.797 16.3026 1.797ZM15.9334 3.59775L10.6392 8.89195C10.4702 9.0624 10.24 9.15828 9.99997 9.15828C9.75989 9.15828 9.52976 9.0624 9.3607 8.89195L4.06649 3.59775H15.9334ZM17.203 13.5019C17.203 13.9991 16.7999 14.4022 16.3026 14.4022H3.69734C3.20008 14.4022 2.79697 13.9991 2.79697 13.5019V4.86726L8.09117 10.1615C9.14575 11.2147 10.8542 11.2147 11.9088 10.1615L17.203 4.86726V13.5019Z" fill="white"/>
</mask>
<g mask="url(#mask0)">
<rect x="1" width="18" height="18" fill="#323639"/>
</g>
</svg>
